0.53136 0.21296  0.00224
0.53168 0.21448  0.0204
0.52216 0.206  -0.01464
0.53728 0.21696  0.00176
0.52064 0.218  0.01984
0.49024 0.2128  -0.00472
0.43176 0.2068  -0.00656
0.4336 0.21328  -0.00504
0.4216 0.19408  -0.01992
0.40768 0.17856  0.01912
0.3824 0.15192  -0.0012
0.37664 0.15552  -0.01944
0.37048 0.1368  0.0032
0.37536 0.10968  0.00832
0.37224 0.10464  0.00968
0.37568 0.08608  0.01176
0.38192 0.06792  0.014
0.37608 0.05152  0.00872
0.3712 0.04336  0.00952
0.37648 0.09992  0.00736
0.37232 0.11984  0.00352
0.3932 0.14568  0.00192
0.42024 0.18504  0.00112
0.45048 0.218  0.01872
0.46256 0.21768  -0.01712
0.50496 0.2196  0.01776
0.52752 0.2168  -0.00688
0.53304 0.21528  -0.00816
0.57192 0.21992  -0.00496
0.55912 0.1964  -0.00984
0.60712 0.17752  -0.00528
0.61016 0.16184  -0.0192
0.6084 0.12008  0.00408
0.60192 0.08584  0.00272
0.60744 0.08008  0.00656
0.58136 0.03072  0.0044
0.58336 0.03696  0.00592
0.57152 0.00824  0.00896
0.55056 0.00528  0.00704
0.53248 0.01744  0.00984
0.55256 -0.00336  0.00936
0.52472 -0.01784  0.00744
0.54936 0.01856  0.00272
0.54296 -0.01152  0.00768
0.53152 -0.01288  0.01344
0.48432 -0.00752  0.01408
0.45584 -0.02008  0.01248
0.43696 0.01592  0.0132
0.42464 0.00248  0.0096
0.4016 0.03024  0.01096
0.40168 0.02776  0.01064
0.40992 0.00264  0.01128
0.43904 0.00752  0.01088
0.39128 0.0312  0.01568
0.408 0.04928  0.01848
0.3844 0.06528  0.01672
0.38544 0.10024  0.01912
0.38896 0.09664  0.01816
0.38704 0.12216  0.01776
0.38288 0.10456  0.01792
0.37352 0.09808  0.01688
0.40192 0.0256  0.01936
0.42872 0.0108  0.01632
0.44768 -0.00888  0.01936
0.46208 -0.00848  0.02
0.47656 -0.0024  0.01792
0.52672 -0.01136  0.014
0.54272 0.0  0.01208
0.57248 0.02968  0.0112
0.55752 0.0384  0.01064
0.58704 0.02736  0.00976
0.59376 0.0416  0.00848
0.57896 0.0764  0.00696
0.60112 0.0732  0.00584
0.60264 0.07368  0.0032
0.60224 0.0636  0.0076
0.6108 0.09952  0.00016
0.6136 0.08848  0.01928
0.61 0.11424  -0.01808
0.6092 0.12056  0.01896
0.60336 0.13912  -0.0016
0.59568 0.14968  -0.00168
0.60592 0.18064  -0.00304
0.5804 0.13192  0.00736
0.58808 0.17992  0.012
0.56208 0.18208  0.00792
0.54936 0.1996  0.01936
